DataStream Pro - Technical Documentation

VERSION: 2.4.0
LAST UPDATED: March 2024
DOCUMENTATION TYPE: API Reference & Integration Guide

OVERVIEW
DataStream Pro is a real-time data processing platform designed for high-throughput scenarios. It provides APIs for data ingestion, transformation, and delivery with built-in monitoring and alerting capabilities.

ARCHITECTURE

Core Components:
1. Ingestion Layer
   - REST API endpoints for data submission
   - WebSocket connections for streaming data
   - Batch upload processing
   - Message queue integration (Kafka, RabbitMQ)

2. Processing Engine
   - Stream processing with Apache Kafka Streams
   - ETL transformations with custom Python/Scala functions
   - Real-time aggregations and windowing
   - Machine learning pipeline integration

3. Storage Layer
   - Primary: Apache Cassandra for time-series data
   - Secondary: PostgreSQL for metadata and configuration
   - Cache: Redis for frequently accessed data
   - Archive: AWS S3 for long-term storage

4. Delivery Layer
   - REST API for data retrieval
   - GraphQL endpoint for flexible queries
   - Webhook notifications
   - Export formats: JSON, CSV, Parquet, Avro

API REFERENCE

Authentication:
- API Key authentication required
- JWT tokens for user-based access
- OAuth 2.0 for third-party integrations

Rate Limits:
- Standard tier: 1,000 requests/hour
- Professional tier: 10,000 requests/hour
- Enterprise tier: 100,000 requests/hour

Base URL: https://api.datastreamapp.com/v2

INGESTION ENDPOINTS

POST /ingest/events
Submit real-time events for processing

Request Body:
{
  "stream_id": "string",
  "timestamp": "2024-03-15T10:30:00Z",
  "event_type": "string",
  "data": {
    "user_id": "string",
    "action": "string",
    "properties": {}
  },
  "metadata": {
    "source": "string",
    "version": "string"
  }
}

Response:
{
  "status": "accepted",
  "event_id": "evt_1234567890",
  "processing_time_ms": 45
}

POST /ingest/batch
Submit multiple events in a single request

Request Body:
{
  "stream_id": "string",
  "events": [
    {
      "timestamp": "2024-03-15T10:30:00Z",
      "event_type": "string",
      "data": {}
    }
  ]
}

GET /streams/{stream_id}/status
Check stream processing status and health

Response:
{
  "stream_id": "string",
  "status": "active",
  "events_processed": 15420,
  "processing_rate": 245.7,
  "last_event_timestamp": "2024-03-15T14:25:33Z",
  "lag_seconds": 1.2
}

QUERY ENDPOINTS

GET /query/events
Retrieve events with filtering and pagination

Query Parameters:
- stream_id (required): Stream identifier
- start_time: ISO 8601 timestamp
- end_time: ISO 8601 timestamp
- event_type: Filter by event type
- limit: Number of results (max 1000)
- offset: Pagination offset

Response:
{
  "events": [
    {
      "event_id": "string",
      "timestamp": "string",
      "event_type": "string",
      "data": {}
    }
  ],
  "total_count": 15420,
  "has_more": true
}

POST /query/aggregate
Perform real-time aggregations

Request Body:
{
  "stream_id": "string",
  "time_window": {
    "start": "2024-03-15T10:00:00Z",
    "end": "2024-03-15T11:00:00Z"
  },
  "aggregations": [
    {
      "field": "data.amount",
      "operation": "sum"
    },
    {
      "field": "data.user_id",
      "operation": "count_distinct"
    }
  ],
  "group_by": ["event_type"]
}

WEBHOOKS

Configure webhooks to receive real-time notifications:

POST /webhooks
{
  "url": "https://your-app.com/webhook",
  "events": ["stream.processing_error", "stream.threshold_exceeded"],
  "stream_id": "string",
  "secret": "webhook_secret_key"
}

Webhook Payload:
{
  "event": "stream.processing_error",
  "timestamp": "2024-03-15T14:30:00Z",
  "stream_id": "string",
  "data": {
    "error_message": "string",
    "affected_events": 15
  }
}

ERROR HANDLING

Common HTTP Status Codes:
- 200: Success
- 400: Bad Request (invalid parameters)
- 401: Unauthorized (invalid API key)
- 403: Forbidden (insufficient permissions)
- 429: Too Many Requests (rate limit exceeded)
- 500: Internal Server Error

Error Response Format:
{
  "error": {
    "code": "INVALID_STREAM_ID",
    "message": "The specified stream ID does not exist",
    "details": {
      "stream_id": "invalid_stream_123"
    }
  }
}

MONITORING & ALERTING

Health Check Endpoint:
GET /health
{
  "status": "healthy",
  "components": {
    "ingestion": "healthy",
    "processing": "healthy",
    "storage": "healthy",
    "delivery": "degraded"
  },
  "timestamp": "2024-03-15T14:30:00Z"
}

Metrics Available:
- Events processed per second
- Processing latency (p50, p95, p99)
- Error rates by stream
- Storage utilization
- API response times

Alert Configuration:
- Processing lag > 30 seconds
- Error rate > 5%
- Storage utilization > 80%
- API response time > 1 second

SDKS AND LIBRARIES

Python SDK:
pip install datastream-python
from datastream import DataStreamClient

client = DataStreamClient(api_key="your_api_key")
client.ingest.send_event(
    stream_id="user_actions",
    event_type="page_view",
    data={"page": "/dashboard", "user_id": "123"}
)

JavaScript SDK:
npm install datastream-js
import DataStream from 'datastream-js';

const client = new DataStream({ apiKey: 'your_api_key' });
await client.ingest.sendEvent({
  streamId: 'user_actions',
  eventType: 'button_click',
  data: { button: 'subscribe', userId: '456' }
});

PERFORMANCE BENCHMARKS

Throughput:
- Single stream: 50,000 events/second
- Multiple streams: 500,000 events/second aggregate
- Batch processing: 10M events/hour

Latency:
- Ingestion to storage: <100ms (p95)
- Query response time: <500ms (p95)
- Webhook delivery: <1 second (p95)

Storage:
- Data retention: 90 days default, configurable
- Compression ratio: 4:1 average
- Query performance: <2 seconds for 1M records